[
    {
      "img": "our-news-img.jpg",
      "date": "17 Января 2019",
      "preview": "Где можно заняться йогой?"
    },
    {
      "img": "our-news-img2.jpg",
      "date": "17 Января 2019",
      "preview": "Йога для начинающих — инструкция по выполнению асан"
    },
    {
      "img": "our-news-img3.jpg",
      "date": "17 Января 2019",
      "preview": "Сила духа в тебе и ты сможешь раскрыть его"
    },
    {
      "img": "our-news-img4.jpg",
      "date": "17 Января 2019",
      "preview": "Йога для начинающих — инструкция по выполнению асан"
    },
    {
      "img": "license-img.jpg",
      "date": "17 Января 2019",
      "preview": "Йога для начинающих — инструкция по выполнению асан"
    },
    {
      "img": "license-img2.jpg",
      "date": "17 Января 2019",
      "preview": "Сила духа в тебе и ты сможешь раскрыть его"
    },
    {
      "img": "license-img3.jpg",
      "date": "17 Января 2019",
      "preview": "Где можно заняться йогой?"
    }
]    