<?xml version="1.0" encoding="utf-8"?>
<!-- Generator: Adobe Illustrator 21.1.0, SVG Export Plug-In . SVG Version: 6.00 Build 0)  -->
<svg version="1.1" id="Layer_1" xmlns="http://www.w3.org/2000/svg" xmlns:xlink="http://www.w3.org/1999/xlink" x="0px" y="0px"
	 viewBox="0 0 496 496" style="enable-background:new 0 0 496 496;" xml:space="preserve">
<style type="text/css">
	.st0{fill:#FF826E;}
	.st1{fill:#FCD770;}
	.st2{fill:#F0D0B4;}
	.st3{fill:#E6E9ED;}
	.st4{fill:#B4DD7F;}
	.st5{fill:#235399;}
</style>
<path class="st0" d="M295.4,354l57,15.6c13.9,3.8,23.6,16.4,23.6,30.9V488H120v-87.5c0-14.5,9.7-27.1,23.6-30.9l57-15.6H295.4z"/>
<path class="st1" d="M295.4,354L280,408l-32-24l40-32L295.4,354z"/>
<path class="st1" d="M248,384l-32,24l-15.4-54l7.4-2L248,384z"/>
<path class="st2" d="M208.4,319.6c10.2,10.2,24.1,16.4,39.6,16.4s29.4-6.2,39.6-16.4l0.4,0.4v32l-40,32l-40-32v-32L208.4,319.6z"/>
<path class="st2" d="M304,248v32c0,15.5-6.2,29.4-16.4,39.6S263.5,336,248,336s-29.4-6.2-39.6-16.4S192,295.5,192,280v-32
	c0-31,25-56,56-56c15.5,0,29.4,6.2,39.6,16.4S304,232.5,304,248z"/>
<path class="st3" d="M488,232v96c0,8.8-7.2,16-16,16h-96c-8.8,0-16-7.2-16-16v-96c0-8.8,7.2-16,16-16h96
	C480.8,216,488,223.2,488,232z"/>
<path class="st0" d="M451,253c3,3,5,7.4,5,12c0,4.5-1.8,8.8-5,12l-27,27l-27-27c-3.2-3.2-5-7.5-5-12c0-4.6,1.9-9,5-12s7.4-5,12-5
	c4.5,0,8.8,1.8,12,5l3,3l3-3c3.2-3.2,7.5-5,12-5C443.7,248,448,249.9,451,253z"/>
<path class="st3" d="M136,232v96c0,8.8-7.2,16-16,16H24c-8.8,0-16-7.2-16-16v-96c0-8.8,7.2-16,16-16h96C128.8,216,136,223.2,136,232
	z"/>
<path class="st3" d="M184,96v88H96c-48.6,0-88-39.4-88-88c0-24.3,9.8-46.3,25.8-62.2C49.7,17.8,71.7,8,96,8s46.3,9.8,62.2,25.8
	C174.2,49.7,184,71.7,184,96z"/>
<path class="st4" d="M152,96c0,30.9-25.1,56-56,56s-56-25.1-56-56s25.1-56,56-56S152,65.1,152,96z"/>
<path class="st3" d="M462.2,33.8C478.2,49.7,488,71.7,488,96c0,48.6-39.4,88-88,88h-88V96c0-24.3,9.8-46.3,25.8-62.2
	C353.7,17.8,375.7,8,400,8S446.3,17.8,462.2,33.8z"/>
<path class="st1" d="M446.6,84.9c-1.2-5-3.1-9.8-5.8-14l4.4-8.8l-11.4-11.4l-8.8,4.4c-4.2-2.6-9-4.6-14-5.8L408,40h-16l-3.1,9.4
	c-5,1.2-9.8,3.1-14,5.8l-8.8-4.4l-11.4,11.4l4.4,8.8c-2.6,4.2-4.6,9-5.8,14L344,88v16l9.4,3.1c1.2,5,3.1,9.8,5.8,14l-4.4,8.8
	l11.4,11.4l8.8-4.4c4.2,2.6,9,4.6,14,5.8l3.1,9.4h16l3.1-9.4c5-1.2,9.8-3.1,14-5.8l8.8,4.4l11.4-11.4l-4.4-8.8c2.6-4.2,4.6-9,5.8-14
	l9.4-3.1V88L446.6,84.9z M400,112c-8.8,0-16-7.2-16-16s7.2-16,16-16s16,7.2,16,16S408.8,112,400,112z"/>
<path class="st5" d="M384,400.4c0-18-12.1-33.9-29.5-38.6l-58.5-16v-23.7c9.9-11.3,16-26,16-42.2v-32c0-35.3-28.7-64-64-64
	s-64,28.7-64,64v32c0,16.2,6.1,30.9,16,42.2v23.7l-58.5,16c-17.4,4.7-29.5,20.6-29.5,38.6V480H0v16h496v-16H384V400.4z M248,373.8
	l-32-25.6v-12.8c9.4,5.5,20.3,8.7,32,8.7s22.6-3.2,32-8.7v12.8L248,373.8z M234.9,383.8l-14.4,10.8l-8.3-29L234.9,383.8z
	 M283.8,365.6l-8.3,29l-14.4-10.8L283.8,365.6z M200,248c0-26.5,21.5-48,48-48s48,21.5,48,48v32c0,26.5-21.5,48-48,48
	s-48-21.5-48-48V248z M128,400.4c0-10.8,7.3-20.3,17.7-23.2l49.4-13.5l16.4,57.6L248,394l36.5,27.4l16.4-57.6l49.4,13.5
	c10.4,2.8,17.7,12.4,17.7,23.2V480h-40v-72h-16v72H184v-72h-16v72h-40V400.4z"/>
<path class="st5" d="M63.4,304h16v16h-16V304z"/>
<path class="st5" d="M96,192h96V96c0-52.9-43.1-96-96-96S0,43.1,0,96S43.1,192,96,192z M96,16c44.1,0,80,35.9,80,80v80H96
	c-44.1,0-80-35.9-80-80S51.9,16,96,16z"/>
<path class="st5" d="M496,96c0-52.9-43.1-96-96-96s-96,43.1-96,96v96h96C452.9,192,496,148.9,496,96z M320,96c0-44.1,35.9-80,80-80
	s80,35.9,80,80s-35.9,80-80,80h-80V96z"/>
<path class="st5" d="M417.4,149.2c2.7-0.9,5.4-2,8-3.3l10.2,5.1l19.5-19.5l-5.1-10.2c1.3-2.6,2.4-5.2,3.3-8l10.8-3.6V82.2l-10.8-3.6
	c-0.9-2.7-2-5.4-3.3-8l5.1-10.2L435.5,41l-10.2,5.1c-2.6-1.3-5.2-2.4-8-3.3L413.8,32h-27.5l-3.6,10.8c-2.7,0.9-5.4,2-8,3.3L364.5,41
	L345,60.5l5.1,10.2c-1.3,2.6-2.4,5.2-3.3,8L336,82.2v27.5l10.8,3.6c0.9,2.7,2,5.4,3.3,8l-5.1,10.2l19.5,19.5l10.2-5.1
	c2.6,1.3,5.2,2.4,8,3.3l3.6,10.8h27.5L417.4,149.2z M404.9,135.9l-2.7,8.1h-4.5l-2.7-8.1l-4.3-1c-4.1-1-8-2.6-11.7-4.8l-3.8-2.3
	l-7.6,3.8l-3.2-3.2l3.8-7.6l-2.3-3.8c-2.2-3.6-3.9-7.5-4.8-11.6l-1-4.3l-8.1-2.7v-4.5l8.1-2.7l1-4.3c1-4.1,2.6-8,4.8-11.7l2.3-3.8
	l-3.8-7.6l3.2-3.2l7.6,3.8l3.8-2.3c3.6-2.2,7.6-3.9,11.7-4.8l4.3-1l2.7-8.1h4.5l2.7,8.1l4.3,1c4.1,1,8,2.6,11.7,4.8l3.8,2.3l7.6-3.8
	l3.2,3.2l-3.8,7.6l2.3,3.8c2.2,3.6,3.9,7.6,4.8,11.7l1,4.3l8.1,2.7v4.5l-8.1,2.7l-1,4.3c-1,4.1-2.6,8-4.8,11.6l-2.3,3.8l3.8,7.6
	l-3.2,3.2l-7.6-3.8l-3.8,2.3c-3.6,2.2-7.6,3.9-11.7,4.8L404.9,135.9z"/>
<path class="st5" d="M400,72c-13.2,0-24,10.8-24,24s10.8,24,24,24s24-10.8,24-24S413.2,72,400,72z M400,104c-4.4,0-8-3.6-8-8
	s3.6-8,8-8s8,3.6,8,8S404.4,104,400,104z"/>
<path class="st5" d="M439,240c-5.5,0-10.7,1.8-15,5c-4.3-3.3-9.5-5-15-5c-13.8,0-25,11.2-25,25c0,6.6,2.7,13,7.3,17.7l32.7,32.7
	l32.7-32.7c4.6-4.6,7.3-11.1,7.3-17.7C464,251.2,452.8,240,439,240z M445.4,271.3L424,292.7l-21.4-21.4c-1.7-1.7-2.6-4-2.6-6.3
	c0-4.9,4-9,9-9c2.4,0,4.6,0.9,6.3,2.6l8.7,8.7l8.7-8.7c1.7-1.7,3.9-2.6,6.3-2.6c4.9,0,9,4,9,9C448,267.3,447,269.6,445.4,271.3z"/>
<path class="st5" d="M472,208h-96c-13.2,0-24,10.8-24,24v96c0,13.2,10.8,24,24,24h96c13.2,0,24-10.8,24-24v-96
	C496,218.8,485.2,208,472,208z M480,328c0,4.4-3.6,8-8,8h-96c-4.4,0-8-3.6-8-8v-96c0-4.4,3.6-8,8-8h96c4.4,0,8,3.6,8,8V328z"/>
<path class="st5" d="M24,352h96c13.2,0,24-10.8,24-24v-96c0-13.2-10.8-24-24-24H24c-13.2,0-24,10.8-24,24v96
	C0,341.2,10.8,352,24,352z M16,232c0-4.4,3.6-8,8-8h96c4.4,0,8,3.6,8,8v96c0,4.4-3.6,8-8,8H24c-4.4,0-8-3.6-8-8V232z"/>
<path class="st5" d="M72,256c15,0,29.1,5.6,39.7,15.9l11.1-11.5C109.2,247.2,91.2,240,72,240s-37.2,7.2-50.8,20.4l11.1,11.5
	C42.9,261.6,57,256,72,256z"/>
<path class="st5" d="M44.2,281.9l10.4,12.2c9.2-7.8,25.7-7.8,34.9,0l10.4-12.2c-7.5-6.4-17.4-9.9-27.8-9.9S51.7,275.5,44.2,281.9z"
	/>
<path class="st5" d="M96,160c35.3,0,64-28.7,64-64s-28.7-64-64-64S32,60.7,32,96S60.7,160,96,160z M48,96c0-6.9,1.5-13.4,4.1-19.3
	c3.5,2.1,7.8,4.2,13.1,6.1C64.4,87,64,91.4,64,96s0.4,9,1.2,13.2c-5.3,1.9-9.7,4-13.1,6.1C49.5,109.4,48,102.9,48,96z M96,88
	c5.6,0,10.5-0.6,15.2-1.3c0.5,3,0.8,6.1,0.8,9.3c0,3.2-0.3,6.3-0.8,9.3c-4.7-0.8-9.7-1.3-15.2-1.3s-10.5,0.6-15.2,1.3
	c-0.5-3-0.8-6.1-0.8-9.3c0-3.2,0.3-6.3,0.8-9.3C85.5,87.4,90.4,88,96,88z M85.2,71.3C88.5,63.4,92.7,57,96,52.5
	c3.3,4.5,7.5,10.9,10.8,18.8C103.4,71.7,99.9,72,96,72C92.1,72,88.6,71.7,85.2,71.3z M144,96c0,6.9-1.5,13.4-4.1,19.3
	c-3.5-2.1-7.8-4.2-13.1-6.1c0.8-4.2,1.2-8.6,1.2-13.2s-0.4-9-1.2-13.2c5.3-1.9,9.7-4,13.1-6.1C142.5,82.6,144,89.1,144,96z
	 M106.8,120.7c-3.3,7.8-7.4,14.3-10.8,18.8c-3.3-4.5-7.5-10.9-10.8-18.8c3.3-0.4,6.9-0.7,10.8-0.7C99.9,120,103.4,120.3,106.8,120.7
	z M60.9,128.6c2.3-1.3,5.2-2.7,8.7-4c2.2,5.8,4.9,11.1,7.6,15.6C70.9,137.5,65.4,133.5,60.9,128.6z M114.8,140.1
	c2.7-4.5,5.4-9.7,7.6-15.6c3.5,1.3,6.3,2.7,8.7,4C126.6,133.5,121.1,137.5,114.8,140.1z M131.1,63.4c-2.3,1.3-5.2,2.7-8.7,4
	c-2.2-5.8-4.9-11.1-7.6-15.6C121.1,54.5,126.6,58.5,131.1,63.4z M77.2,51.9c-2.7,4.5-5.4,9.7-7.6,15.6c-3.5-1.3-6.3-2.7-8.7-4
	C65.4,58.5,70.9,54.5,77.2,51.9z"/>
</svg>
